Professor,Materia,Aulas,Dia,Inicio,Fim
Faulin,Solos,2,segunda,13,17
Faulin,Solos,2,terca,13,17
Faulin,Solos,2,quarta,13,15
Faulin,Solos,2,sexta,13,15
Faulin,Solos,2,quinta,13,15
Ettore,Redes,4,segunda,13,17
Ettore,Redes,4,terca,13,15
Ettore,Redes,4,quarta,13,17
Ettore,Redes,4,quinta,13,17
Ettore,Redes,4,sexta,13,17
Victor,Algoritmos,6,segunda,13,15
Victor,Algoritmos,6,terca,13,17
Victor,Algoritmos,6,quarta,13,17
Victor,Algoritmos,6,quinta,15,17
Victor,Algoritmos,6,sexta,13,17
Eloiza,Ingles,2,sexta,13,17
Eloiza,Ingles,2,terca,13,17
Eloiza,Ingles,2,quarta,13,17
Eloiza,Ingles,2,quinta,13,17
Eloiza,Ingles,2,sexta,13,17
Cesar,Empreendedorismo,2,segunda,13,17
Cesar,Empreendedorismo,2,terca,13,17
Cesar,Empreendedorismo,2,quarta,13,17
Cesar,Empreendedorismo,2,quinta,15,17
Cesar,Empreendedorismo,2,sexta,13,17
Kleber,WebSemantica,4,quarta,15,17
Kleber,WebSemantica,4,sexta,13,17